4 Definition of Clock, MG and ML scores | DNA methylation landscapes of 1538 breast cancers reveal a replication-linked clock, epigenomic instability and cis-regulation
…
feats_tidy %>% left_join(samp_data %>% select(samp, clin_feat = giScore_width)) %>% group_by(ER, feat) %>% na.omit() %>% do({broom::tidy(cor.test(.$score, .$clin_feat, method = "spearman", use = "pairwise.complete.obs"))}) %>% filter(ER != "normal") %>% filter(p.value < 0.05) %>% arrange(p.value) %>% mutate(signif = case_when(p.value < 0.0001 ~ "****", p.value < 0.001 ~ "***", p.value < 0.01 ~ "**", p.value < 0.05 ~ "*"))

## Joining, by = "samp"

## # A tibble: 7 x 8
## # groups: ER, feat
##    ER feat   estimate statistic      p.value                          method
## 1 ER+  caf -0.2858945 238304890 7.387265e-21 Spearman's rank correlation rho
## 2 ER+   ML  0.2837975 132728278 1.497974e-20 Spearman's rank correlation rho
## 3 ER+   MG  0.2689927 135471936 1.636804e-18 Spearman's rank correlation rho
## 4 ER-  caf -0.2551031   3805302 3.005832e-05 Spearman's rank correlation rho
## 5 ER-   ML  0.1784401   2490858 3.734964e-03 Spearman's rank correlation rho
## 6 ER-   MG -0.1256257   3412744 4.183906e-02 Spearman's rank correlation rho
##   alternative signif
## 1   two.sided   ****
## 2   two.sided   ****
## 3   two.sided   ****
## 4   two.sided   ****
## 5   two.sided     **
## 6   two.sided      *
## # ... with 1 more rows

feats_tidy %>% left_join(samp_data %>% select(samp, clin_feat = giScore_width), by = "samp") %>% count(ER, feat)

## # A tibble: 15 x 3
##    ER   feat    n
## 1 ER-    caf  310
## 2 ER-  clock  310
## 3 ER- immune  310
## 4 ER-     MG  310
## 5 ER-     ML  310
## 6 ER+    caf 1108
## # ... with 9 more rows
…
