…
```r
df_pval %>% filter(grade_pval <= 0.05)
```

```
## # A tibble: 8 x 6
## # groups: ER
##    ER        feat    grade_pval  stage_pval signif_grade signif_stage
## 1 ER-         caf 0.00022642925 0.001946125          ***           **
## 2 ER-    caf.meth 0.00308191469 0.209690818           **         <NA>
## 3 ER+         caf 0.00006512545 0.060334718         ****         <NA>
## 4 ER+    caf.meth 0.00001267372 0.070515621         ****         <NA>
## 5 ER+      immune 0.00063631960 0.457202009          ***         <NA>
## 6 ER+ immune.meth 0.00557962596 0.293001516           **         <NA>
## # ... with 2 more rows
```
…
```r
p_iC10 + theme_bw() + theme(aspect.ratio = 0.5) + vertical_labs() + ggpubr::stat_compare_means(method = "kruskal")
```

<img src="epigenomic-instability_files/figure-html/unnamed-chunk-17-1.png" width="672" />


```r
df %>% distinct(samp, iC10) %>% count(iC10)
```

```
## # A tibble: 12 x 2
##        iC10   n
## 1 ADJNORMAL  92
## 2         1  98
## 3         2  54
## 4         3 214
## 5      4ER+ 172
## 6      4ER-  50
## # ... with 6 more rows
```
…
