9 Survival | DNA methylation landscapes of 1538 breast cancers reveal a replication-linked clock, epigenomic instability and cis-regulation
…
surv_df <- survival %>%
        select(-ER) %>%
        left_join(feats_tidy, by = "samp") %>%
        filter(ER != "normal") %>% 
        group_by(ER, feat) %>%
        filter(sum(!is.na(score)) >= 1) %>%
        mutate(score = cut(score, breaks = quantile(score, 0:3 / 3, na.rm = TRUE), labels = c("low", "mid", "high"), include.lowest = TRUE)) %>%
        ungroup() %>% 
        filter(score != "mid") %>%
        mutate(score = factor(score, levels = c("low", "high")))

surv_df %>% count(feat, ER, score)

## # A tibble: 20 x 4
##     feat  ER score   n
## 1    CAF ER-   low 104
## 2    CAF ER-  high 103
## 3    CAF ER+   low 370
## 4    CAF ER+  high 369
## 5 Immune ER-   low 104
## 6 Immune ER-  high 103
## # ... with 14 more rows

surv_df %>% count(feat, ER)

## # A tibble: 10 x 3
##     feat  ER   n
## 1    CAF ER- 207
## 2    CAF ER+ 739
## 3 Immune ER- 207
## 4 Immune ER+ 739
## 5  Clock ER- 207
## 6  Clock ER+ 739
## # ... with 4 more rows
…
surv_df <- survival %>%
        select(-ER) %>%
        left_join(feats_tidy, by = "samp") %>%
        filter(ER != "normal") %>% 
        group_by(ER, feat) %>%
        filter(sum(!is.na(score)) >= 1) %>%
        mutate(score = cut(score, breaks = quantile(score, 0:3 / 3, na.rm = TRUE), labels = c("low", "mid", "high"), include.lowest = TRUE)) %>%
        ungroup() %>%
        filter(score != "mid") %>%
        mutate(score = factor(score, levels = c("low", "high")))

surv_df %>% count(feat, ER, score)

## # A tibble: 20 x 4
##     feat  ER score   n
## 1    CAF ER-   low 104
## 2    CAF ER-  high 103
## 3    CAF ER+   low 370
## 4    CAF ER+  high 369
## 5 Immune ER-   low 104
## 6 Immune ER-  high 103
## # ... with 14 more rows
…
