…
surv_df %>% count(feat, ER, score)
```

```
## # A tibble: 20 x 4
##     feat  ER score   n
## 1    CAF ER-   low 104
## 2    CAF ER-  high 103
## 3    CAF ER+   low 370
## 4    CAF ER+  high 369
## 5 Immune ER-   low 104
## 6 Immune ER-  high 103
## # ... with 14 more rows
```


```r
surv_df %>% count(feat, ER)
```

```
## # A tibble: 10 x 3
##     feat  ER   n
## 1    CAF ER- 207
## 2    CAF ER+ 739
## 3 Immune ER- 207
## 4 Immune ER+ 739
## 5  Clock ER- 207
## 6  Clock ER+ 739
## # ... with 4 more rows
```
…
surv_df %>% count(feat, ER, score)
```

```
## # A tibble: 20 x 4
##     feat  ER score   n
## 1    CAF ER-   low 104
## 2    CAF ER-  high 103
## 3    CAF ER+   low 370
## 4    CAF ER+  high 369
## 5 Immune ER-   low 104
## 6 Immune ER-  high 103
## # ... with 14 more rows
```
…
