3 Tumor microenvironment (TME) deconvolution | DNA methylation landscapes of 1538 breast cancers reveal a replication-linked clock, epigenomic instability and cis-regulation
…
3.4.5 Merge TME scores

We also merge the CAF and Immmune score for each sample. Note that methylayer extracts both the expression module score (caf and immune columns) and methylation score (caf.meth, immune.meth). The expression scores were used for the deconvolution wheareas the methylation scores are the average methylation of the loci that were correlated to the expression score (above 0.3, scores_cor_thresh parameter).

tme_df <- bind_rows(
        ER_positive_norm_meth$tme_features,
        ER_negative_norm_meth$tme_features,
        normal_norm_meth$tme_features
    ) %>%            
    select(samp, caf, immune, caf.meth, immune.meth) %cache_df% 
    here("data/TME_features.tsv") %>% 
    as_tibble()
tme_df

## # A tibble: 1,510 x 5
##      samp        caf     immune  caf.meth immune.meth
## 1 MB_0006 -0.2441946 -0.1114837 0.2950609   0.4722494
## 2 MB_0028 -1.7266095 -0.9358944 0.4851022   0.6191494
## 3 MB_0046 -0.6545081 -1.0023582 0.4210078   0.6308352
## 4 MB_0050  1.7038169  0.1281640 0.2336145   0.4808316
## 5 MB_0053 -0.8152407  0.2103729 0.4603347   0.5915159
## 6 MB_0054 -0.5608747  0.9292829 0.4790603   0.6093489
## # ... with 1,504 more rows
…
